%YAML 1.1
%TAG !u! tag:unity3d.com,2011:
--- !u!114 &11400000
MonoBehaviour:
  m_ObjectHideFlags: 0
  m_CorrespondingSourceObject: {fileID: 0}
  m_PrefabInstance: {fileID: 0}
  m_PrefabAsset: {fileID: 0}
  m_GameObject: {fileID: 0}
  m_Enabled: 1
  m_EditorHideFlags: 0
  m_Script: {fileID: 11500000, guid: 7497388a64694207b6f051dd119b2c17, type: 3}
  m_Name: Player Tap Data
  m_EditorClassIdentifier: 
  AreaValue: 0
  AreaCost: 0
  DamageValue: 0
  DamageCost: 0
