time,delay_from_prev,enemy_id,amount,spawn_delay
0.0,0.0,big_01,3,2.00
9.0,9.0,small_01,4,0.20
13.0,4.0,small_01,6,0.10
15.0,2.0,medium_01,2,0.00
19.0,4.0,small_01,6,0.30
22.0,3.0,medium_01,2,0.30
24.0,2.0,small_01,5,0.20
25.0,1.0,small_01,3,0.20
27.0,2.0,small_01,8,0.30
31.0,4.0,medium_01,3,0.50
34.0,3.0,small_01,3,0.20
36.0,2.0,small_01,2,0.20
38.0,2.0,small_01,5,0.30
41.0,3.0,medium_01,2,0.50
42.0,1.0,small_01,4,0.20
48.0,6.0,small_01,4,0.20
51.5,3.5,small_01,6,0.10
53.0,1.5,medium_01,2,0.00
55.5,2.5,small_01,6,0.30
58.5,3.0,medium_01,2,0.30
59.5,1.0,small_01,5,0.20
61.5,2.0,small_01,3,0.20
62.5,1.0,small_01,8,0.30
64.5,2.0,medium_01,3,0.50
68.0,3.5,small_01,3,0.20
69.5,1.5,small_01,2,0.20
70.5,1.0,small_01,5,0.30
73.0,2.5,medium_01,2,0.50
74.0,1.0,small_01,4,0.20