level_id,reward,zone,waves
lvl_0001,200,zone_simple_01,wave_tutor_01
lvl_0002,300,zone_simple_01,wave_easy_02
lvl_0003,500,zone_standard_01,wave_level_03
lvl_0004,500,zone_standard_01,wave_level_04
lvl_0005,500,zone_standard_01,wave_level_05