level,frequency_value,frequency_cost,damage_value,damage_cost
0,0.50,100,3,0
1,1.00,50,6,60
2,1.50,90,10,100
3,2.00,150,15,170
4,2.20,260,18,290
5,2.40,390,21,430
6,2.90,590,29,650
7,3.10,890,33,980
8,3.30,1070,37,1180
9,3.50,1280,42,1410
10,4.30,1540,52,1690
11,4.50,1770,57,1950
12,4.70,2040,63,2240
13,4.90,2350,69,2590
14,5.10,2700,75,2970
15,5.80,3110,85,3420
16,6.00,3580,92,3940
17,6.20,3940,99,4330
18,6.40,4330,107,4760
19,6.60,4760,115,5240
20,6.80,5000,123,5500
21,7.00,5250,132,5780
22,7.20,5510,141,6060
23,7.40,5650,150,6220
24,7.60,5790,160,6370
25,7.80,5930,170,6520
26,8.00,6050,180,6660
27,8.20,6170,190,6790
28,8.40,6290,200,6920
29,8.60,6420,210,7060
30,10.00,6550,250,7210