time,delay_from_prev,enemy_id,amount,spawn_delay
0.0,0.0,small_01,7,0.20
4.0,4.0,small_01,4,0.20
7.5,3.5,small_01,6,0.10
9.5,2.0,medium_01,2,0.00
14.5,5.0,giant,1,0.30
21.5,7.0,medium_01,3,0.00
26.5,5.0,small_01,6,0.30
29.5,3.0,medium_01,2,0.30
31.5,2.0,small_01,5,0.20
32.5,1.0,small_01,3,0.20
34.5,2.0,small_01,8,0.30
37.5,3.0,medium_01,2,0.50
38.5,1.0,small_01,4,0.20
40.5,2.0,small_01,4,0.20
44.0,3.5,fast_01,20,0.05
47.0,3.0,medium_01,2,0.00
49.5,2.5,small_01,6,0.30
52.5,3.0,medium_01,2,0.30
53.5,1.0,small_01,5,0.20
57.5,4.0,giant,1,0.20
61.5,4.0,small_01,8,0.30