%YAML 1.1
%TAG !u! tag:unity3d.com,2011:
--- !u!1001 &973377964461022207
PrefabInstance:
  m_ObjectHideFlags: 0
  serializedVersion: 2
  m_Modification:
    m_TransformParent: {fileID: 0}
    m_Modifications:
    - target: {fileID: 176998, guid: f1179f7c8280ed9418120582fab4e86b, type: 3}
      propertyPath: m_Name
      value: Tower Shoot Particle
      objectReference: {fileID: 0}
    - target: {fileID: 450726, guid: f1179f7c8280ed9418120582fab4e86b, type: 3}
      propertyPath: m_RootOrder
      value: 0
      objectReference: {fileID: 0}
    - target: {fileID: 450726, guid: f1179f7c8280ed9418120582fab4e86b, type: 3}
      propertyPath: m_LocalScale.x
      value: 2
      objectReference: {fileID: 0}
    - target: {fileID: 450726, guid: f1179f7c8280ed9418120582fab4e86b, type: 3}
      propertyPath: m_LocalScale.y
      value: 2
      objectReference: {fileID: 0}
    - target: {fileID: 450726, guid: f1179f7c8280ed9418120582fab4e86b, type: 3}
      propertyPath: m_LocalScale.z
      value: 2
      objectReference: {fileID: 0}
    - target: {fileID: 450726, guid: f1179f7c8280ed9418120582fab4e86b, type: 3}
      propertyPath: m_LocalPosition.x
      value: 0
      objectReference: {fileID: 0}
    - target: {fileID: 450726, guid: f1179f7c8280ed9418120582fab4e86b, type: 3}
      propertyPath: m_LocalPosition.y
      value: 0
      objectReference: {fileID: 0}
    - target: {fileID: 450726, guid: f1179f7c8280ed9418120582fab4e86b, type: 3}
      propertyPath: m_LocalPosition.z
      value: 0
      objectReference: {fileID: 0}
    - target: {fileID: 450726, guid: f1179f7c8280ed9418120582fab4e86b, type: 3}
      propertyPath: m_LocalRotation.w
      value: 1
      objectReference: {fileID: 0}
    - target: {fileID: 450726, guid: f1179f7c8280ed9418120582fab4e86b, type: 3}
      propertyPath: m_LocalRotation.x
      value: 0
      objectReference: {fileID: 0}
    - target: {fileID: 450726, guid: f1179f7c8280ed9418120582fab4e86b, type: 3}
      propertyPath: m_LocalRotation.y
      value: 0
      objectReference: {fileID: 0}
    - target: {fileID: 450726, guid: f1179f7c8280ed9418120582fab4e86b, type: 3}
      propertyPath: m_LocalRotation.z
      value: 0
      objectReference: {fileID: 0}
    - target: {fileID: 450726, guid: f1179f7c8280ed9418120582fab4e86b, type: 3}
      propertyPath: m_LocalEulerAnglesHint.x
      value: 0
      objectReference: {fileID: 0}
    - target: {fileID: 450726, guid: f1179f7c8280ed9418120582fab4e86b, type: 3}
      propertyPath: m_LocalEulerAnglesHint.y
      value: 0
      objectReference: {fileID: 0}
    - target: {fileID: 450726, guid: f1179f7c8280ed9418120582fab4e86b, type: 3}
      propertyPath: m_LocalEulerAnglesHint.z
      value: 0
      objectReference: {fileID: 0}
    - target: {fileID: 8262636, guid: f1179f7c8280ed9418120582fab4e86b, type: 3}
      propertyPath: m_Enabled
      value: 0
      objectReference: {fileID: 0}
    - target: {fileID: 19808472, guid: f1179f7c8280ed9418120582fab4e86b, type: 3}
      propertyPath: playOnAwake
      value: 0
      objectReference: {fileID: 0}
    - target: {fileID: 19842610, guid: f1179f7c8280ed9418120582fab4e86b, type: 3}
      propertyPath: playOnAwake
      value: 0
      objectReference: {fileID: 0}
    m_RemovedComponents:
    - {fileID: 11441272, guid: f1179f7c8280ed9418120582fab4e86b, type: 3}
    - {fileID: 8262636, guid: f1179f7c8280ed9418120582fab4e86b, type: 3}
  m_SourcePrefab: {fileID: 100100000, guid: f1179f7c8280ed9418120582fab4e86b, type: 3}
