%YAML 1.1
%TAG !u! tag:unity3d.com,2011:
--- !u!1001 &1283680303899840073
PrefabInstance:
  m_ObjectHideFlags: 0
  serializedVersion: 2
  m_Modification:
    m_TransformParent: {fileID: 0}
    m_Modifications:
    - target: {fileID: 183362, guid: 3f97cdb2dde8d7f44a37ce3a93c2bf69, type: 3}
      propertyPath: m_Name
      value: BasicZoneYellow
      objectReference: {fileID: 0}
    - target: {fileID: 183362, guid: 3f97cdb2dde8d7f44a37ce3a93c2bf69, type: 3}
      propertyPath: m_IsActive
      value: 0
      objectReference: {fileID: 0}
    - target: {fileID: 433904, guid: 3f97cdb2dde8d7f44a37ce3a93c2bf69, type: 3}
      propertyPath: m_RootOrder
      value: 0
      objectReference: {fileID: 0}
    - target: {fileID: 433904, guid: 3f97cdb2dde8d7f44a37ce3a93c2bf69, type: 3}
      propertyPath: m_LocalScale.x
      value: 3.7415283
      objectReference: {fileID: 0}
    - target: {fileID: 433904, guid: 3f97cdb2dde8d7f44a37ce3a93c2bf69, type: 3}
      propertyPath: m_LocalScale.y
      value: 3.7415283
      objectReference: {fileID: 0}
    - target: {fileID: 433904, guid: 3f97cdb2dde8d7f44a37ce3a93c2bf69, type: 3}
      propertyPath: m_LocalScale.z
      value: 3.7415283
      objectReference: {fileID: 0}
    - target: {fileID: 433904, guid: 3f97cdb2dde8d7f44a37ce3a93c2bf69, type: 3}
      propertyPath: m_LocalPosition.x
      value: 3.27
      objectReference: {fileID: 0}
    - target: {fileID: 433904, guid: 3f97cdb2dde8d7f44a37ce3a93c2bf69, type: 3}
      propertyPath: m_LocalPosition.y
      value: 0
      objectReference: {fileID: 0}
    - target: {fileID: 433904, guid: 3f97cdb2dde8d7f44a37ce3a93c2bf69, type: 3}
      propertyPath: m_LocalPosition.z
      value: 0.05
      objectReference: {fileID: 0}
    - target: {fileID: 433904, guid: 3f97cdb2dde8d7f44a37ce3a93c2bf69, type: 3}
      propertyPath: m_LocalRotation.w
      value: 1
      objectReference: {fileID: 0}
    - target: {fileID: 433904, guid: 3f97cdb2dde8d7f44a37ce3a93c2bf69, type: 3}
      propertyPath: m_LocalRotation.x
      value: 0
      objectReference: {fileID: 0}
    - target: {fileID: 433904, guid: 3f97cdb2dde8d7f44a37ce3a93c2bf69, type: 3}
      propertyPath: m_LocalRotation.y
      value: 0
      objectReference: {fileID: 0}
    - target: {fileID: 433904, guid: 3f97cdb2dde8d7f44a37ce3a93c2bf69, type: 3}
      propertyPath: m_LocalRotation.z
      value: 0
      objectReference: {fileID: 0}
    - target: {fileID: 433904, guid: 3f97cdb2dde8d7f44a37ce3a93c2bf69, type: 3}
      propertyPath: m_LocalEulerAnglesHint.x
      value: 0
      objectReference: {fileID: 0}
    - target: {fileID: 433904, guid: 3f97cdb2dde8d7f44a37ce3a93c2bf69, type: 3}
      propertyPath: m_LocalEulerAnglesHint.y
      value: 0
      objectReference: {fileID: 0}
    - target: {fileID: 433904, guid: 3f97cdb2dde8d7f44a37ce3a93c2bf69, type: 3}
      propertyPath: m_LocalEulerAnglesHint.z
      value: 0
      objectReference: {fileID: 0}
    - target: {fileID: 19900652, guid: 3f97cdb2dde8d7f44a37ce3a93c2bf69, type: 3}
      propertyPath: m_Materials.Array.size
      value: 1
      objectReference: {fileID: 0}
    - target: {fileID: 19971778, guid: 3f97cdb2dde8d7f44a37ce3a93c2bf69, type: 3}
      propertyPath: m_Materials.Array.size
      value: 1
      objectReference: {fileID: 0}
    - target: {fileID: 19984918, guid: 3f97cdb2dde8d7f44a37ce3a93c2bf69, type: 3}
      propertyPath: m_Materials.Array.size
      value: 1
      objectReference: {fileID: 0}
    m_RemovedComponents: []
  m_SourcePrefab: {fileID: 100100000, guid: 3f97cdb2dde8d7f44a37ce3a93c2bf69, type: 3}
