%YAML 1.1
%TAG !u! tag:unity3d.com,2011:
--- !u!114 &11400000
MonoBehaviour:
  m_ObjectHideFlags: 0
  m_CorrespondingSourceObject: {fileID: 0}
  m_PrefabInstance: {fileID: 0}
  m_PrefabAsset: {fileID: 0}
  m_GameObject: {fileID: 0}
  m_Enabled: 1
  m_EditorHideFlags: 0
  m_Script: {fileID: 11500000, guid: 8a5d515805144bab8b0804ce2f841490, type: 3}
  m_Name: Wave Level 3
  m_EditorClassIdentifier: 
  Time: 
  Delay: 
  EnemyId: []
  Amount: 
  SpawnDelay: []
