%YAML 1.1
%TAG !u! tag:unity3d.com,2011:
--- !u!114 &11400000
MonoBehaviour:
  m_ObjectHideFlags: 0
  m_CorrespondingSourceObject: {fileID: 0}
  m_PrefabInstance: {fileID: 0}
  m_PrefabAsset: {fileID: 0}
  m_GameObject: {fileID: 0}
  m_Enabled: 1
  m_EditorHideFlags: 0
  m_Script: {fileID: 11500000, guid: fe2da50bed2747529609a80ffb988bdd, type: 3}
  m_Name: Fast Enemy
  m_EditorClassIdentifier: 
  EnemyType: 3
  StartHealth: 5
  StartSpeed: 10.5
  StartDamage: 30
  StartScale: 0.5
  Reward: 15
  EnemyPrefab: {fileID: 2239553606053224866, guid: d9d5e4871b2694ea68c35e1cc67983d9, type: 3}
  IsLoaded: 0
