%YAML 1.1
%TAG !u! tag:unity3d.com,2011:
--- !u!114 &11400000
MonoBehaviour:
  m_ObjectHideFlags: 0
  m_CorrespondingSourceObject: {fileID: 0}
  m_PrefabInstance: {fileID: 0}
  m_PrefabAsset: {fileID: 0}
  m_GameObject: {fileID: 0}
  m_Enabled: 1
  m_EditorHideFlags: 0
  m_Script: {fileID: 11500000, guid: 2723533a147f4ceea70cf6cbb398e952, type: 3}
  m_Name: LevelDatabase
  m_EditorClassIdentifier: 
  tutorialLevels:
  - Level 1
  - Level 2
  levels:
  - Level 3
  - Level 4
  - Level 5
