%YAML 1.1
%TAG !u! tag:unity3d.com,2011:
--- !u!114 &-1622224868843224635
MonoBehaviour:
  m_ObjectHideFlags: 11
  m_CorrespondingSourceObject: {fileID: 0}
  m_PrefabInstance: {fileID: 0}
  m_PrefabAsset: {fileID: 0}
  m_GameObject: {fileID: 0}
  m_Enabled: 1
  m_EditorHideFlags: 0
  m_Script: {fileID: 11500000, guid: d0353a89b1f911e48b9e16bdc9f2e058, type: 3}
  m_Name: 
  m_EditorClassIdentifier: 
  version: 4
--- !u!21 &2100000
Material:
  serializedVersion: 6
  m_ObjectHideFlags: 0
  m_CorrespondingSourceObject: {fileID: 0}
  m_PrefabInstance: {fileID: 0}
  m_PrefabAsset: {fileID: 0}
  m_Name: tower_drop
  m_Shader: {fileID: 4800000, guid: bee44b4a58655ee4cbff107302a3e131, type: 3}
  m_ShaderKeywords: DR_CEL_EXTRA_ON DR_GRADIENT_ON DR_OUTLINE_ON DR_SPECULAR_ON _CELPRIMARYMODE_SINGLE
    _RECEIVE_SHADOWS_OFF _TEXTUREBLENDINGMODE_MULTIPLY _UNITYSHADOWMODE_NONE
  m_LightmapFlags: 4
  m_EnableInstancingVariants: 0
  m_DoubleSidedGI: 0
  m_CustomRenderQueue: -1
  stringTagMap: {}
  disabledShaderPasses: []
  m_SavedProperties:
    serializedVersion: 3
    m_TexEnvs:
    - _BaseMap:
        m_Texture: {fileID: 0}
        m_Scale: {x: 1, y: 1}
        m_Offset: {x: 0, y: 0}
    - _BumpMap:
        m_Texture: {fileID: 0}
        m_Scale: {x: 1, y: 1}
        m_Offset: {x: 0, y: 0}
    - _CelCurveTexture:
        m_Texture: {fileID: 0}
        m_Scale: {x: 1, y: 1}
        m_Offset: {x: 0, y: 0}
    - _CelStepTexture:
        m_Texture: {fileID: 0}
        m_Scale: {x: 1, y: 1}
        m_Offset: {x: 0, y: 0}
    - _DetailAlbedoMap:
        m_Texture: {fileID: 0}
        m_Scale: {x: 1, y: 1}
        m_Offset: {x: 0, y: 0}
    - _DetailMask:
        m_Texture: {fileID: 0}
        m_Scale: {x: 1, y: 1}
        m_Offset: {x: 0, y: 0}
    - _DetailNormalMap:
        m_Texture: {fileID: 0}
        m_Scale: {x: 1, y: 1}
        m_Offset: {x: 0, y: 0}
    - _EmissionMap:
        m_Texture: {fileID: 0}
        m_Scale: {x: 1, y: 1}
        m_Offset: {x: 0, y: 0}
    - _MainTex:
        m_Texture: {fileID: 0}
        m_Scale: {x: 1, y: 1}
        m_Offset: {x: 0, y: 0}
    - _MetallicGlossMap:
        m_Texture: {fileID: 0}
        m_Scale: {x: 1, y: 1}
        m_Offset: {x: 0, y: 0}
    - _OcclusionMap:
        m_Texture: {fileID: 0}
        m_Scale: {x: 1, y: 1}
        m_Offset: {x: 0, y: 0}
    - _ParallaxMap:
        m_Texture: {fileID: 0}
        m_Scale: {x: 1, y: 1}
        m_Offset: {x: 0, y: 0}
    - _SpecGlossMap:
        m_Texture: {fileID: 0}
        m_Scale: {x: 1, y: 1}
        m_Offset: {x: 0, y: 0}
    - unity_Lightmaps:
        m_Texture: {fileID: 0}
        m_Scale: {x: 1, y: 1}
        m_Offset: {x: 0, y: 0}
    - unity_LightmapsInd:
        m_Texture: {fileID: 0}
        m_Scale: {x: 1, y: 1}
        m_Offset: {x: 0, y: 0}
    - unity_ShadowMasks:
        m_Texture: {fileID: 0}
        m_Scale: {x: 1, y: 1}
        m_Offset: {x: 0, y: 0}
    m_Floats:
    - _AlphaClip: 0
    - _Blend: 0
    - _BumpScale: 1
    - _CameraDistanceImpact: 0
    - _CelExtraEnabled: 1
    - _CelNumSteps: 3
    - _CelPrimaryMode: 1
    - _ClearCoatMask: 0
    - _ClearCoatSmoothness: 0
    - _Cull: 2
    - _Cutoff: 0.5
    - _DetailAlbedoMapScale: 1
    - _DetailNormalMapScale: 1
    - _DstBlend: 0
    - _EnvironmentReflections: 1
    - _FlatRimEdgeSmoothness: 0.5
    - _FlatRimLightAlign: 0
    - _FlatRimSize: 0.5
    - _FlatSpecularEdgeSmoothness: 0
    - _FlatSpecularSize: 0
    - _Flatness: 0.419
    - _FlatnessExtra: 0.538
    - _GlossMapScale: 0
    - _Glossiness: 0
    - _GlossyReflections: 0
    - _GradientAngle: 81
    - _GradientCenterX: -0.51
    - _GradientCenterY: 1.43
    - _GradientEnabled: 1
    - _GradientSize: 10
    - _LightContribution: 0
    - _LightFalloffSize: 0
    - _LightmapDirectionPitch: 0
    - _LightmapDirectionYaw: 0
    - _Metallic: 0
    - _OcclusionStrength: 1
    - _OutlineDepthOffset: 0
    - _OutlineEnabled: 1
    - _OutlineScale: 1
    - _OutlineWidth: 1
    - _OverrideLightmapDir: 0
    - _Parallax: 0.005
    - _QueueOffset: 0
    - _RampSmooth: 0.1
    - _RampThreshold: 0.5
    - _ReceiveShadows: 1
    - _RimEnabled: 0
    - _SelfShadingSize: 0.591
    - _SelfShadingSizeExtra: 0.336
    - _ShadowEdgeSize: 0
    - _ShadowEdgeSizeExtra: 0.225
    - _Smoothness: 0.5
    - _SmoothnessTextureChannel: 0
    - _SpecularEnabled: 1
    - _SpecularHighlights: 1
    - _SrcBlend: 1
    - _Surface: 0
    - _TextureBlendingMode: 0
    - _TextureImpact: 1
    - _UnityShadowMode: 0
    - _UnityShadowOcclusion: 0
    - _UnityShadowPower: 0.2
    - _UnityShadowSharpness: 1
    - _VertexColorsEnabled: 0
    - _WorkflowMode: 1
    - _ZWrite: 1
    - __dummy__: 0
    m_Colors:
    - _BaseColor: {r: 0.3254717, g: 0.6627358, b: 1, a: 1}
    - _Color: {r: 1, g: 1, b: 1, a: 1}
    - _ColorDim: {r: 0, g: 0.049332764, b: 0.5754717, a: 1}
    - _ColorDimCurve: {r: 0.85023, g: 0.85034, b: 0.8504499, a: 0.85056}
    - _ColorDimExtra: {r: 0.38207546, g: 1, b: 0.94214594, a: 0.28235295}
    - _ColorDimSteps: {r: 0.85023, g: 0.85034, b: 0.8504499, a: 0.85056}
    - _ColorGradient: {r: 0.015913295, g: 0, b: 0.6132076, a: 1}
    - _EmissionColor: {r: 0, g: 0, b: 0, a: 1}
    - _FlatRimColor: {r: 0.85023, g: 0.85034, b: 0.85045, a: 0.85056}
    - _FlatSpecularColor: {r: 0.7028302, g: 0.8514151, b: 1, a: 1}
    - _HColor: {r: 0.785, g: 0.785, b: 0.785, a: 1}
    - _LightmapDirection: {r: 0, g: 1, b: 0, a: 0}
    - _OutlineColor: {r: 0, g: 0.3091883, b: 0.745283, a: 1}
    - _SColor: {r: 0.19499996, g: 0.19499996, b: 0.19499996, a: 1}
    - _SpecColor: {r: 0.19999996, g: 0.19999996, b: 0.19999996, a: 1}
    - _UnityShadowColor: {r: 0.85023, g: 0.85034, b: 0.8504499, a: 0.85056}
  m_BuildTextureStacks: []
