%YAML 1.1
%TAG !u! tag:unity3d.com,2011:
--- !u!21 &2100000
Material:
  serializedVersion: 6
  m_ObjectHideFlags: 0
  m_CorrespondingSourceObject: {fileID: 0}
  m_PrefabInstance: {fileID: 0}
  m_PrefabAsset: {fileID: 0}
  m_Name: FireOuter yellow
  m_Shader: {fileID: 4800000, guid: 5df37011a3317c949aed2f23404a5134, type: 3}
  m_ShaderKeywords: _MOVEINWARDS_ON
  m_LightmapFlags: 4
  m_EnableInstancingVariants: 1
  m_DoubleSidedGI: 0
  m_CustomRenderQueue: -1
  stringTagMap: {}
  disabledShaderPasses: []
  m_SavedProperties:
    serializedVersion: 3
    m_TexEnvs:
    - _BumpMap:
        m_Texture: {fileID: 0}
        m_Scale: {x: 1, y: 1}
        m_Offset: {x: 0, y: 0}
    - _DetailAlbedoMap:
        m_Texture: {fileID: 0}
        m_Scale: {x: 1, y: 1}
        m_Offset: {x: 0, y: 0}
    - _DetailMask:
        m_Texture: {fileID: 0}
        m_Scale: {x: 1, y: 1}
        m_Offset: {x: 0, y: 0}
    - _DetailNormalMap:
        m_Texture: {fileID: 0}
        m_Scale: {x: 1, y: 1}
        m_Offset: {x: 0, y: 0}
    - _EmissionMap:
        m_Texture: {fileID: 0}
        m_Scale: {x: 1, y: 1}
        m_Offset: {x: 0, y: 0}
    - _MainTex:
        m_Texture: {fileID: 2800000, guid: d0f1e1c15337d41c2b698f5dd1afc72c, type: 3}
        m_Scale: {x: 1, y: 1}
        m_Offset: {x: 0, y: 0}
    - _MetallicGlossMap:
        m_Texture: {fileID: 0}
        m_Scale: {x: 1, y: 1}
        m_Offset: {x: 0, y: 0}
    - _OcclusionMap:
        m_Texture: {fileID: 0}
        m_Scale: {x: 1, y: 1}
        m_Offset: {x: 0, y: 0}
    - _ParallaxMap:
        m_Texture: {fileID: 0}
        m_Scale: {x: 1, y: 1}
        m_Offset: {x: 0, y: 0}
    m_Floats:
    - _AnimatedV1: 0
    - _Arange: 0.08
    - _ArangeX: 0.17
    - _ArangeZ: 0.17
    - _BumpScale: 1
    - _Cutoff: 0.5
    - _DetailNormalMapScale: 1
    - _DstBlend: 0
    - _EnableParticles: 1
    - _Frequency: 200
    - _GlossMapScale: 1
    - _Glossiness: 0.5
    - _GlossyReflections: 1
    - _Height1: 3.95
    - _HeightFactor: 10
    - _IntensityHScale: 1.79
    - _IntensityHShift: 0
    - _IntensityV1: 0.02
    - _IntensityV1Variance1: 2.37
    - _IntensityV1Variance2: 5
    - _Metallic: 0
    - _Mode: 0
    - _MoveInwards: 1
    - _OcclusionStrength: 1
    - _Parallax: 0.02
    - _ParticlesAmplitudeV: 4.31
    - _ParticlesDelay: 1.83
    - _ParticlesRadius: 15
    - _ParticlesSpeed: 2.58
    - _SmoothnessTextureChannel: 0
    - _SpecularHighlights: 1
    - _Speed: 9
    - _SpeedH1: 3.31
    - _SpeedV1: 10
    - _SrcBlend: 1
    - _UVSec: 0
    - _ZWrite: 1
    m_Colors:
    - _Color: {r: 1, g: 1, b: 1, a: 1}
    - _EmissionColor: {r: 0, g: 0, b: 0, a: 1}
    - _MainColor: {r: 1, g: 0.9892648, b: 0.36470592, a: 1}
  m_BuildTextureStacks: []
