%YAML 1.1
%TAG !u! tag:unity3d.com,2011:
--- !u!114 &11400000
MonoBehaviour:
  m_ObjectHideFlags: 0
  m_CorrespondingSourceObject: {fileID: 0}
  m_PrefabInstance: {fileID: 0}
  m_PrefabAsset: {fileID: 0}
  m_GameObject: {fileID: 0}
  m_Enabled: 1
  m_EditorHideFlags: 0
  m_Script: {fileID: 11500000, guid: d55b1e0518e34957b562ca5460c266f3, type: 3}
  m_Name: Standard Zone
  m_EditorClassIdentifier: 
  ZoneType: 0
  StartRadius: 0.5
  EndRadius: 1
  GrowthSpeed: 1
  Strength: 5
