%YAML 1.1
%TAG !u! tag:unity3d.com,2011:
--- !u!114 &11400000
MonoBehaviour:
  m_ObjectHideFlags: 0
  m_CorrespondingSourceObject: {fileID: 0}
  m_PrefabInstance: {fileID: 0}
  m_PrefabAsset: {fileID: 0}
  m_GameObject: {fileID: 0}
  m_Enabled: 1
  m_EditorHideFlags: 0
  m_Script: {fileID: 11500000, guid: 27acf68a2776455bb709c66b17d0b969, type: 3}
  m_Name: Tower Data
  m_EditorClassIdentifier: 
  Level: 0
  FrequencyValue: 0
  FrequencyCost: 0
  DamageValue: 0
  DamageCost: 0
